Geospatial Analytics - Pump it Up with Geospatial Data - A data-driven approach to the exploration of spatial patterns of Non-Functional Waterpoints in Nigeria
…
ℹ Use `spec()` to retrieve the full column specification for this data.
ℹ Specify the column types or set `show_col_types = FALSE` to quiet this message.

After importing the data file into R, it is important for us to examine if the data file has been imported correctly. The code chunk below shows list() of Base R instead of glimpse() is used to do the job.

list(ngawaterpoints)

[[1]]
# A tibble: 95,008 × 70
   row_id `#source`      #lat_…¹ #lon_…² #repo…³ #stat…⁴ #wate…⁵ #wate…⁶ #wate…⁷
    <dbl> <chr>            <dbl>   <dbl> <chr>   <chr>   <chr>   <chr>   <chr>  
 1 429068 GRID3             7.98    5.12 08/29/… Unknown <NA>    <NA>    Tapsta…
 2 222071 Federal Minis…    6.96    3.60 08/16/… Yes     Boreho… Well    Mechan…
 3 160612 WaterAid          6.49    7.93 12-04-… Yes     Boreho… Well    Hand P…
 4 160669 WaterAid          6.73    7.65 12-04-… Yes     Boreho… Well    <NA>   
 5 160642 WaterAid          6.78    7.66 12-04-… Yes     Boreho… Well    Hand P…
 6 160628 WaterAid          6.96    7.78 12-04-… Yes     Boreho… Well    Hand P…
 7 160632 WaterAid          7.02    7.84 12-04-… Yes     Boreho… Well    Hand P…
 8 642747 Living Water …    7.33    8.98 10-03-… Yes     Boreho… Well    Mechan…
 9 642456 Living Water …    7.17    9.11 10-03-… Yes     Boreho… Well    Hand P…
10 641347 Living Water …    7.20    9.22 03/28/… Yes     Boreho… Well    Hand P…
# … with 94,998 more rows, 61 more variables: `#water_tech_category` <chr>,
#   `#facility_type` <chr>, `#clean_country_name` <chr>, `#clean_adm1` <chr>,
#   `#clean_adm2` <chr>, `#clean_adm3` <lgl>, `#clean_adm4` <lgl>,
#   `#install_year` <dbl>, `#installer` <lgl>, `#rehab_year` <lgl>,
#   `#rehabilitator` <lgl>, `#management_clean` <chr>, `#status_clean` <chr>,
#   `#pay` <chr>, `#fecal_coliform_presence` <lgl>,
#   `#fecal_coliform_value` <lgl>, `#subjective_quality` <chr>, …
# ℹ Use `print(n = ...)` to see more rows, and `colnames()` to see all variable names
…
